{
  "title": "InsertBackmappingForCitrix",
  "rules": [
    {
      "description": "insert to F13",
      "manipulators": [
        {
          "type": "basic",
          "from": {
            "key_code": "insert",
            "modifiers": {
              "optional": [
                "any"
              ]
            }
          },
          "to": [
            {
              "key_code": "f13"
            }
          ],
          "conditions": [
            {
              "type": "frontmost_application_unless",
              "bundle_identifiers": [
                "^com\\.microsoft\\.rdc\\.macos"
              ]
            }
          ]
        }
      ]
    }
  ]
}
